…
``` r
value_usapro1[is.na(value_usapro1)] <- 0      

value_revenue <- value_usapro1 %>%      
  group_by(league, year) %>%      
  summarise(r_sum = sum(revenue), io_sum = sum(operatingIncome), teams = n())      
  
value_revenue <- value_revenue %>%         
  mutate(r_ave = r_sum / teams, io_ave = io_sum / teams, roi = (io_sum / r_sum * 100))       

value_revenue
```

    ## # A tibble: 30 x 8
    ## # Groups:   league [4]
    ##    league  year r_sum io_sum teams r_ave io_ave   roi
    ##    <chr>  <dbl> <dbl>  <dbl> <int> <dbl>  <dbl> <dbl>
    ##  1 mlb     2012  6359   432.    30  212.  14.4   6.79
    ##  2 mlb     2013  6808   394.    30  227.  13.1   5.79
    ##  3 mlb     2014  7098   291.    30  237.   9.69  4.09
    ##  4 mlb     2015  7864   617.    30  262.  20.6   7.85
    ##  5 mlb     2016  8394   675.    30  280.  22.5   8.05
    ##  6 mlb     2017  9027  1029.    30  301.  34.3  11.4 
    ##  7 mlb     2018  9460   858.    30  315.  28.6   9.07
    ##  8 mlb     2019  9895  1188.    30  330.  39.6  12.0 
    ##  9 nba     2012  3960   175.    30  132    5.82  4.41
    ## 10 nba     2013  3681   357.    30  123.  11.9   9.70
    ## # … with 20 more rows
…
