…
# 2012년부터 2019년까지 각 리그별 가치의 합계와 평균 값을 구해봤다.

``` r
value_sum <- value_usapro %>%
  group_by(league, year) %>%
  summarise(sum = sum(valueList), teams = n()) 

value_sum <- value_sum %>% 
  mutate(ave = sum / teams) 

value_sum$ave <- round(value_sum$ave)
value_sum   
```

    ## # A tibble: 30 x 5
    ## # Groups:   league [4]
    ##    league  year   sum teams   ave
    ##    <chr>  <int> <int> <int> <dbl>
    ##  1 mlb     2012 18153    30   605
    ##  2 mlb     2013 22307    30   744
    ##  3 mlb     2014 24327    30   811
    ##  4 mlb     2015 35985    30  1200
    ##  5 mlb     2016 38630    30  1288
    ##  6 mlb     2017 46105    30  1537
    ##  7 mlb     2018 49335    30  1644
    ##  8 mlb     2019 53280    30  1776
    ##  9 nba     2012 11776    30   393
    ## 10 nba     2013 15271    30   509
    ## # … with 20 more rows
…
