…
## LG 트윈스 홈 평균 관중 1982\~2018

#### MBC 청룡시절을 포함해 LG 트윈스 홈 평균 관중 변동 추이를 살펴봤다.

``` r
KBO_attendance %>% 
    filter(team == "LG", cate == "mean")
```

    ## # A tibble: 37 x 4
    ##     year team  cate    num
    ##    <dbl> <chr> <chr> <dbl>
    ##  1  2018 LG    mean  12523
    ##  2  2017 LG    mean  14424
    ##  3  2016 LG    mean  11842
    ##  4  2015 LG    mean  11124
    ##  5  2014 LG    mean  12982
    ##  6  2013 LG    mean  12043
    ##  7  2012 LG    mean  20742
    ##  8  2011 LG    mean  20273
    ##  9  2010 LG    mean  17813
    ## 10  2009 LG    mean  20597
    ## # ... with 27 more rows
…
